nom;nombre_lecon;description;tarif;centre
Packakge 10 leçons;10;Package contenant 10 leçons;18000;1
Packakge 30 leçons;30;Package contenant 30 leçons;40000;1
Packakge 60 leçons;60;Package contenant 60 leçons;60000;1